po      postprocess     ::      CRASHREP:crashrep HELP:helpcontent2 ODK:odk MYSQLC:mysqlc DESKTOP:setup_native STLPORT:stlport sysui tail_build NULL
po	postprocess			    	usr1	-	all	po_mkout NULL
po	postprocess\checkxml		nmake	-	all	po_checkxml NULL
po	postprocess\packconfig		nmake	-	all	po_packconfig po_checkxml NULL
po  postprocess\packregistry        nmake   -       all     po_packregistry NULL
po  postprocess\packcomponents      nmake   -       all     po_packcomponents NULL
po	postprocess\signing	    	nmake	-	w,sign	po_signing NULL
