Globals
{
    Settings
    {
        variables
        {
            UREPACKAGEVERSION 4.1.0.0.alpha0
            URELAYERVERSION 1
            REFERENCEOOOMAJORMINOR 3.4
            UNIXBASISROOTNAME libreoffice4.1
            SERVICETAG_PRODUCTNAME LibreOffice 4.1
            SERVICETAG_PRODUCTVERSION 4.1
            SERVICETAG_PARENTNAME LibreOffice 4.1
            SERVICETAG_SOURCE {buildsource}{minor}(Build:{buildid})
            SERVICETAG_URN urn:uuid:0187debd-e458-11de-82d6-080020a9ed93
            HIDELICENSEDIALOG 1
            PACKAGEPREFIX
            BASISPACKAGEPREFIX libobasis
            UREPACKAGEPREFIX libreoffice
            SOLSUREPACKAGEPREFIX libreoffice
            REGISTRATION_HOST https://registration.libreoffice.org/RegistrationWeb
            REGISTRATIONURL http://survey.libreoffice.org/user/index.php
            PROGRESSBARCOLOR 126,170,23
            PROGRESSSIZE 319,10
            PROGRESSPOSITION 164,225
            PROGRESSFRAMECOLOR 207,208,211
            NATIVEPROGRESS false
            REGISTRYLAYERNAME Layers
            SERVICEPACK 1
            UPDATE_DATABASE 1
            CREATE_MSP_INSTALLSET 0
            UPDATE_DATABASE_LISTNAME finals_instsetoo.txt
            PACKAGEMAP package_names.txt,package_names_ext.txt
            WINDOWSPATCHLEVEL 8
            OOOVENDOR The Document Foundation
            OOODOWNLOADNAME 1
            BUILDIDCWS {buildidcws}
            STARTCENTER_HIDE_EXTERNAL_LINKS 0
        }
    }
}

LibreOffice
{
    Settings
    {
        variables
        {
            PRODUCTNAME LibreOffice
            PRODUCTVERSION 4.1
            PRODUCTEXTENSION
            LONG_PRODUCTEXTENSION
            SHORT_PRODUCTEXTENSION .0.0.alpha0
            POSTVERSIONEXTENSION
            POSTVERSIONEXTENSIONUNIX
            BRANDPACKAGEVERSION 4.1
            USERDIRPRODUCTVERSION 4
            ABOUTBOXPRODUCTVERSION 4.1.0.0.alpha0
            ABOUTBOXPRODUCTVERSIONSUFFIX +
            BASEPRODUCTVERSION 4.1
            PCPFILENAME libreoffice.pcp
            UPDATEURL http://update.libreoffice.org/check.php
            ADD_INCLUDE_FILES cliureversion.mk,clioootypesversion.mk
            ADDSYSTEMINTEGRATION 1
            FILEFORMATNAME OpenOffice.org
            FILEFORMATVERSION 1.0
            WRITERCOMPATIBILITYVERSIONOOO11 OpenOffice.org 1.1
            PACKAGEVERSION 4.1.0.0.alpha0
            PACKAGEREVISION {buildid}
            LICENSENAME LGPL
            GLOBALFILEGID gid_File_Lib_Vcl
            GLOBALPATCHFILEGID gid_File_Txt_Patchfiles
            SPELLCHECKERFILE spellchecker_selection.txt
            OOODOWNLOADNAME 1
            BETAUPGRADECODE
            STUBUPGRADECODE {0E7B27B8-D658-4BF9-98D6-EC361582EB4A}
            CHANGETARGETDIR 1
            PATCHCODEFILE ooo_patchcodes.txt
            STARTCENTER_ADDFEATURE_URL http://extensions.libreoffice.org/
            STARTCENTER_INFO_URL http://www.libreoffice.org/
            STARTCENTER_TEMPLREP_URL http://templates.libreoffice.org/
            DICT_REPO_URL http://extensions.libreoffice.org/dictionaries/
            STARTCENTER_HIDE_EXTERNAL_LINKS 0
        }
        active          1
        compression     5
        script          setup_osl
        downloadname    LibO_{productversion}_{os}_install_{languages}
        langpackdownloadname    LibO_{productversion}_languagepack_{os}_install_{languages}
        helppackdownloadname    LibO_{productversion}_helppack_{os}_install_{languages}
        include         {solarenvpath}/{os}/loader2,.,{localpath}/bin,{solarpath}/bin.{minor}/ooowoure,{solarpath}/bin.{minor}/osl,{solarpath}/bin.{minor}/desktop-integration/{pkgtype},{solarpath}/bin.{minor},{solarpath}/lib.{minor},{solarpath}/pck.{minor}/openoffice,{solarpath}/pck.{minor},{solarpath}/xml.{minor}/office/instance,{solarpath}/xml.{minor},../../external/common,{solarenvpath}/{os}/OOo_external
    }
}

LibreOffice_Dev
{
    Settings
    {
        variables
        {
            PRODUCTNAME LOdev
            PRODUCTVERSION 4.1
            PRODUCTEXTENSION
            LONG_PRODUCTEXTENSION
            SHORT_PRODUCTEXTENSION .0.0.alpha0
            UNIXBASISROOTNAME lodev4.1
            POSTVERSIONEXTENSION
            POSTVERSIONEXTENSIONUNIX
            BRANDPACKAGEVERSION 4.1
            USERDIRPRODUCTVERSION 4
            ABOUTBOXPRODUCTVERSION 4.1.0.0.alpha0
            ABOUTBOXPRODUCTVERSIONSUFFIX +
            BASEPRODUCTVERSION 4.1
            DEVELOPMENTPRODUCT 1
            BASISPACKAGEPREFIX lodevbasis
            UREPACKAGEPREFIX lodev
            SOLSUREPACKAGEPREFIX lodev
            REGISTRYLAYERNAME LayerDev
            SERVICETAG_URN urn:uuid:1680b00d-e45c-11de-82d6-080020a9ed93
            UPDATEURL http://update.libreoffice.org/check.php
            ADD_INCLUDE_FILES cliureversion.mk,clioootypesversion.mk
            ADDSYSTEMINTEGRATION 1
            FILEFORMATNAME OpenOffice.org
            FILEFORMATVERSION 1.0
            WRITERCOMPATIBILITYVERSIONOOO11 OpenOffice.org 1.1
            PACKAGEVERSION 4.1.0.0.alpha0
            PACKAGEREVISION {buildid}
            LICENSENAME LGPL
            GLOBALFILEGID gid_File_Lib_Vcl
            GLOBALPATCHFILEGID gid_File_Txt_Patchfiles
            SPELLCHECKERFILE spellchecker_selection.txt
            OOODOWNLOADNAME 1
            BETAUPGRADECODE
            STUBUPGRADECODE {0E7B27B8-D658-4BF9-98D6-EC361582EB4A}
            CHANGETARGETDIR 1
            PATCHCODEFILE ooodev_patchcodes.txt
            CODEFILENAME codes_ooodev.txt
            LOCALUSERDIR $ORIGIN/..
            STARTCENTER_ADDFEATURE_URL http://extensions.libreoffice.org/
            STARTCENTER_INFO_URL http://www.libreoffice.org/
            STARTCENTER_TEMPLREP_URL http://templates.libreoffice.org/
            DICT_REPO_URL http://extensions.libreoffice.org/dictionaries/
            STARTCENTER_HIDE_EXTERNAL_LINKS 0
        }
        active          1
        compression     5
        script          setup_osl
        downloadname    LibO-dev_{productversion}_{os}_install_{languages}
        langpackdownloadname    LibO-dev_{productversion}_languagepack_{os}_install_{languages}
        helppackdownloadname    LibO-dev_{productversion}_helppack_{os}_install_{languages}
        include         {solarenvpath}/{os}/loader2,.,{localpath}/bin/dev,{localpath}/bin,{solarpath}/bin.{minor}/osl,{solarpath}/bin.{minor}/desktop-integration/{pkgtype},{solarpath}/bin.{minor},{solarpath}/lib.{minor},{solarpath}/pck.{minor}/openoffice_dev,{solarpath}/pck.{minor}/openoffice,{solarpath}/pck.{minor},{solarpath}/xml.{minor}/office/instance,{solarpath}/xml.{minor},../../external/common,{solarenvpath}/{os}/OOo_external
    }
}

URE
{
    Settings
    {
        downloadname URE_{productversion}_{os}_install_{languages}
        variables
        {
            PRODUCTNAME URE
            PRODUCTVERSION 4.1
            PACKAGEVERSION 4.1.0.0.alpha0
            PACKAGEREVISION 1
            PRODUCTEXTENSION
            BRANDPACKAGEVERSION 4.1
            LONG_PRODUCTEXTENSION
            SHORT_PRODUCTEXTENSION .0.0.alpha0
            LICENSENAME LGPL
            NOVERSIONINDIRNAME 1
            PCPFILENAME ure.pcp
            GLOBALFILEGID gid_File_Dl_Cppu
            DONTUSESTARTMENUFOLDER 1
            STARTCENTER_ADDFEATURE_URL http://extensions.libreoffice.org/
            STARTCENTER_INFO_URL http://www.libreoffice.org/
            STARTCENTER_TEMPLREP_URL http://templates.libreoffice.org/
            ADD_INCLUDE_FILES cliureversion.mk,clioootypesversion.mk
            PACKAGEMAP package_names_ext.txt
            DICT_REPO_URL http://extensions.libreoffice.org/dictionaries/
            STARTCENTER_HIDE_EXTERNAL_LINKS 0
        }
        active 1
        compression 5
        script ure
        include {solarenvpath}/{os}/loader2,{solarpath}/bin.{minor}/ure,{solarpath}/bin.{minor}/osl,{solarpath}/bin.{minor},{solarpath}/lib.{minor},{solarpath}/xml.{minor},{solarenvpath}/{os}/MS
    }
}

LibreOffice_SDK
{
    Settings
    {
        downloadname LibO-SDK_{packageversion}_{os}_install_{languages}
        variables
        {
            PRODUCTNAME LibreOffice
            PRODUCTVERSION 4.1
            PRODUCTEXTENSION
            LONG_PRODUCTEXTENSION
            SHORT_PRODUCTEXTENSION .0.0.alpha0
            POSTVERSIONEXTENSION SDK
            POSTVERSIONEXTENSIONUNIX sdk
            BRANDPACKAGEVERSION 4.1
            PACKAGEVERSION 4.1.0.0.alpha0
            PACKAGEREVISION {buildid}
            PACK_INSTALLED 1
            DMG_VOLUMEEXTENSION SDK
            DATABASENAME libreoffice40sdk
            NO_README_IN_ROOTDIR 1
            LICENSENAME LGPL
            IGNOREDIRECTORYLAYER 1
            NOVERSIONINDIRNAME 0
            NOSPACEINDIRECTORYNAME 1
            NOSHORTDIRECTORYNAMES 1
            CHANGETARGETDIR 1
            DONTUSESTARTMENUFOLDER 1
            STARTCENTER_ADDFEATURE_URL http://extensions.libreoffice.org/
            STARTCENTER_INFO_URL http://www.libreoffice.org/
            STARTCENTER_TEMPLREP_URL http://templates.libreoffice.org/
            DICT_REPO_URL http://extensions.libreoffice.org/dictionaries/
            STARTCENTER_HIDE_EXTERNAL_LINKS 0
        }
        active 1
        compression 5
        script sdkoo
        include {solarenvpath}/{os}/loader2,{solarpath}/bin.{minor}/sdkoo,{solarpath}/bin.{minor}/osl,{solarpath}/bin.{minor},{solarpath}/lib.{minor},{solarenvpath}/{os}/MS
    }
}

LibreOffice_Dev_SDK
{
    Settings
    {
        downloadname LibO-Dev-SDK_{packageversion}_{os}_install_{languages}
        variables
        {
            PRODUCTNAME LOdev
            PRODUCTVERSION 4.1
            PRODUCTEXTENSION
            LONG_PRODUCTEXTENSION
            SHORT_PRODUCTEXTENSION .0.0.alpha0
            UNIXBASISROOTNAME lodev4.1
            POSTVERSIONEXTENSION SDK
            POSTVERSIONEXTENSIONUNIX sdk
            BRANDPACKAGEVERSION 4.1
            PACKAGEVERSION 4.1.0.0.alpha0
            PACKAGEREVISION {buildid}
            BASISPACKAGEPREFIX lodevbasis
            UREPACKAGEPREFIX lodev
            SOLSUREPACKAGEPREFIX lodev
            REGISTRYLAYERNAME LayerDev
            DEVELOPMENTPRODUCT 1
            PACK_INSTALLED 1
            DMG_VOLUMEEXTENSION SDK
            DATABASENAME libreoffice40devsdk
            NO_README_IN_ROOTDIR 1
            LICENSENAME LGPL
            IGNOREDIRECTORYLAYER 1
            NOVERSIONINDIRNAME 0
            NOSPACEINDIRECTORYNAME 1
            NOSHORTDIRECTORYNAMES 1
            CHANGETARGETDIR 1
            DONTUSESTARTMENUFOLDER 1
            STARTCENTER_ADDFEATURE_URL http://extensions.libreoffice.org/
            STARTCENTER_INFO_URL http://www.libreoffice.org/
            STARTCENTER_TEMPLREP_URL http://templates.libreoffice.org/
            DICT_REPO_URL http://extensions.libreoffice.org/dictionaries/
            STARTCENTER_HIDE_EXTERNAL_LINKS 0
        }
        active 1
        compression 5
        script sdkoo
        include {solarenvpath}/{os}/loader2,{solarpath}/bin.{minor}/sdkoo,{solarpath}/bin.{minor}/osl,{solarpath}/bin.{minor},{solarpath}/lib.{minor},{solarenvpath}/{os}/MS
    }
}

LibreOffice_Test
{
    Settings
    {
        downloadname LO-Test_{packageversion}_{os}_install_{languages}
        variables
        {
            PRODUCTNAME LibreOffice
            PRODUCTVERSION 4.1
            PRODUCTEXTENSION
            LONG_PRODUCTEXTENSION
            SHORT_PRODUCTEXTENSION .0.0.alpha0
            POSTVERSIONEXTENSION TEST
            POSTVERSIONEXTENSIONUNIX test
            BRANDPACKAGEVERSION 4.1
            PACKAGEVERSION 4.1.0.0.alpha0
            PACKAGEREVISION {buildid}
            PACK_INSTALLED 1
            DMG_VOLUMEEXTENSION TEST
            DATABASENAME libreoffice40test
            NO_README_IN_ROOTDIR 1
            LICENSENAME LGPL
            IGNOREDIRECTORYLAYER 1
            NOVERSIONINDIRNAME 0
            NOSPACEINDIRECTORYNAME 1
            NOSHORTDIRECTORYNAMES 1
            CHANGETARGETDIR 1
            DONTUSESTARTMENUFOLDER 1
            STARTCENTER_ADDFEATURE_URL http://extensions.libreoffice.org/
            STARTCENTER_INFO_URL http://www.libreoffice.org/
            STARTCENTER_TEMPLREP_URL http://templates.libreoffice.org/
            DICT_REPO_URL http://extensions.libreoffice.org/dictionaries/
            STARTCENTER_HIDE_EXTERNAL_LINKS 0
        }
        active 1
        compression 5
        script test
        include {solarenvpath}/{os}/loader2,{solarpath}/bin.{minor}/cppunit,{solarpath}/bin.{minor}/osl,{solarpath}/bin.{minor},{solarpath}/lib.{minor}
    }
}

LibreOffice_Dev_Test
{
    Settings
    {
        downloadname LO-Dev-Test_{packageversion}_{os}_install_{languages}
        variables
        {
            PRODUCTNAME LOdev
            PRODUCTVERSION 4.1
            PRODUCTEXTENSION
            LONG_PRODUCTEXTENSION
            SHORT_PRODUCTEXTENSION .0.0.alpha0
            UNIXBASISROOTNAME lodev4.1
            POSTVERSIONEXTENSION TEST
            POSTVERSIONEXTENSIONUNIX test
            BRANDPACKAGEVERSION 4.1
            PACKAGEVERSION 4.1.0.0.alpha0
            PACKAGEREVISION {buildid}
            BASISPACKAGEPREFIX lodevbasis
            UREPACKAGEPREFIX lodev
            SOLSUREPACKAGEPREFIX lodev
            REGISTRYLAYERNAME LayerDev
            DEVELOPMENTPRODUCT 1
            PACK_INSTALLED 1
            DMG_VOLUMEEXTENSION TEST
            DATABASENAME libreoffice40devtest
            NO_README_IN_ROOTDIR 1
            LICENSENAME LGPL
            IGNOREDIRECTORYLAYER 1
            NOVERSIONINDIRNAME 0
            NOSPACEINDIRECTORYNAME 1
            NOSHORTDIRECTORYNAMES 1
            CHANGETARGETDIR 1
            DONTUSESTARTMENUFOLDER 1
            STARTCENTER_ADDFEATURE_URL http://extensions.libreoffice.org/
            STARTCENTER_INFO_URL http://www.libreoffice.org/
            STARTCENTER_TEMPLREP_URL http://templates.libreoffice.org/
            DICT_REPO_URL http://extensions.libreoffice.org/dictionaries/
            STARTCENTER_HIDE_EXTERNAL_LINKS 0
        }
        active 1
        compression 5
        script test
        include {solarenvpath}/{os}/loader2,{solarpath}/bin.{minor}/cppunit,{solarpath}/bin.{minor}/osl,{solarpath}/bin.{minor},{solarpath}/lib.{minor}
    }
}

OxygenOffice
{
    Settings
    {
        variables
        {
            PRODUCTNAME OxygenOffice
            PRODUCTVERSION 4.1
            PRODUCTEXTENSION
            LONG_PRODUCTEXTENSION
            SHORT_PRODUCTEXTENSION .0.0.alpha0
            POSTVERSIONEXTENSION
            POSTVERSIONEXTENSIONUNIX
            BRANDPACKAGEVERSION 4.1
            USERDIRPRODUCTVERSION 4
            ABOUTBOXPRODUCTVERSION 4.1.0.0.alpha0
            ABOUTBOXPRODUCTVERSIONSUFFIX +
            BASEPRODUCTVERSION 4.1
            PCPFILENAME openoffice.pcp
            UPDATEURL http://update.libreoffice.org/check.php
            ADD_INCLUDE_FILES cliureversion.mk,clioootypesversion.mk
            ADDSYSTEMINTEGRATION 1
            FILEFORMATNAME OpenOffice.org
            FILEFORMATVERSION 1.0
            WRITERCOMPATIBILITYVERSIONOOO11 OpenOffice.org 1.1
            PACKAGEVERSION 4.1.0.0.alpha0
            PACKAGEREVISION {buildid}
            LICENSENAME LGPL
            SERVICESPROJEKT 1
            GLOBALFILEGID gid_File_Lib_Vcl
            GLOBALPATCHFILEGID gid_File_Txt_Patchfiles
            SPELLCHECKERFILE spellchecker_selection.txt
            OOODOWNLOADNAME 1
            BETAUPGRADECODE
            STUBUPGRADECODE {0E7B27B8-D658-4BF9-98D6-EC361582EB4A}
            CHANGETARGETDIR 1
            PATCHCODEFILE ooo_patchcodes.txt
            PROGRESSBARCOLOR 126,170,23
            PROGRESSSIZE 430,5
            PROGRESSPOSITION 5,230
            PROGRESSFRAMECOLOR 207,208,211
            STARTCENTER_ADDFEATURE_URL http://extensions.libreoffice.org/
            STARTCENTER_INFO_URL http://www.libreoffice.org/
            STARTCENTER_TEMPLREP_URL http://templates.libreoffice.org/
            DICT_REPO_URL http://extensions.libreoffice.org/dictionaries/
            STARTCENTER_HIDE_EXTERNAL_LINKS 0
        }
        active          1
        compression     5
        script          setup_osl
        downloadname    OOOP_{productversion}_{os}_install_{languages}
        langpackdownloadname    OOOP_{productversion}_languagepack_{os}_install_{languages}
        helppackdownloadname    OOOP_{productversion}_helppack_{os}_install_{languages}
        include         {solarenvpath}/{os}/loader2,.,{localcommonpath}/bin,{localpath}/bin,{solarpath}/bin.{minor}/ooowoure,{solarpath}/bin.{minor}/osl,{solarpath}/bin.{minor}/desktop-integration/{pkgtype},{solarpath}/bin.{minor},{solarpath}/lib.{minor},{solarpath}/pck.{minor}/openoffice,{solarpath}/pck.{minor},{solarpath}/xml.{minor}/office/instance,{solarpath}/xml.{minor},{solarcommonpath}/bin.{minor}/osl,{solarcommonpath}/bin.{minor},{solarcommonpath}/pck.{minor}/openoffice,{solarcommonpath}/pck.{minor},../../external/common,{solarenvpath}/{os}/OOo_external,{solarpath}/pck.{minor}/brand
    }
}
